EL3011_2_20251119_13223048/1_lab/Tugas3/data_mem_rv32i.vcd
$comment
Copyright (C) 1991-2010 Altera Corporation
Your use of Altera Corporation's design tools, logic functions 
and other software and tools, and its AMPP partner logic 
functions, and any output files from any of the foregoing 
(including device programming or simulation files), and any 
associated documentation or information are expressly subject 
to the terms and conditions of the Altera Program License 
Subscription Agreement, Altera MegaCore Function License 
Agreement, or other applicable license agreement, including, 
without limitation, that your use is for the sole purpose of 
programming logic devices manufactured by Altera and sold by 
Altera or its authorized distributors.  Please refer to the 
applicable agreement for further details.
$end

$date 
  11/05/2025 13:40:01 
$end
$version 
 QUARTUS_VCD_EXPORT 1.0 
$end
$timescale
  1 ps
$end
$scope module data_mem_rv32i $end
$var reg 1 ! clock $end
$var reg 1 " cu_store $end
$var reg 2 # cu_storetype[1:0] $end
$var reg 32 $ dmem_addr[31:0] $end
$var reg 32 % dmem_out[31:0] $end
$var reg 32 & rs2[31:0] $end
$upscope $end
$enddefinitions $end
#0
$dumpvars
0!
0"
b0 #
b0 $
b100000000001010010011 %
b11001001110111111110111101110011 &
$end
#5000
1!
#10000
0!
b100 $
b1111101001000110110010101000101 &
#15000
1!
#20000
0!
b1000 $
b10000010101111000011110110101111 &
#25000
1!
#27578
b1010010011 %
#27784
b1000010011 %
#27934
b1100010011 %
#30000
0!
b1100 $
b10111011001101011101111110010101 &
#35000
1!
#37351
b100000000000001100010011 %
#37578
b100100000000001100010011 %
#37784
b100100000000001110010011 %
#38274
b101100000000001110010011 %
#40000
0!
b10000 $
b11100010101101110011000001 &
#45000
1!
#47313
b101100000000001110110011 %
#47351
b1100000000001110110011 %
#47784
b1100000000001100110011 %
#48038
b11100000000001100110011 %
#48085
b11100010000001100110011 %
#48207
b11100110000001100110011 %
#48274
b10100110000001100110011 %
#50000
0!
b10100 $
b10011100110101101001010101000000 &
#55000
1!
#57313
b10100110000001100010011 %
#57784
b10100110000001110010011 %
#57851
b10100111000001110010011 %
#57934
b10100111000001010010011 %
#58038
b100111000001010010011 %
#58085
b100101000001010010011 %
#60000
0!
b11000 $
b11100011100110110110010011100111 &
#65000
1!
#67116
b100000100101000001010010011 %
#67313
b100000100101000001010110011 %
#67395
b10100000100101000001010110011 %
#67410
b1010100000100101000001010110011 %
#67422
b1010100000100101000001010100011 %
#67423
b1010100000100101100001010100011 %
#67433
b1010100000100101100001011100011 %
#67471
b1011100000100101100001011100011 %
#67569
b1011100000100101100000011100011 %
#67584
b11011100000100101100000011100011 %
#67676
b11011100000100101100010011100011 %
#67699
b11111100000100101100010011100011 %
#68038
b11111100010100101100010011100011 %
#68248
b11111100010100101100110011100011 %
#68274
b11111100011100101100110011100011 %
#68397
b11111110011100101100110011100011 %
#70000
0!
b11100 $
b10010111011000111011000001110101 &
#75000
1!
#77116
b11111010011100101100110011100011 %
#77313
b11111010011100101100110011000011 %
#77395
b11101010011100101100110011000011 %
#77410
b10101010011100101100110011000011 %
#77422
b10101010011100101100110011010011 %
#77423
b10101010011100101000110011010011 %
#77433
b10101010011100101000110010010011 %
#77471
b10100010011100101000110010010011 %
#77578
b10100010011000101000110010010011 %
#77584
b100010011000101000110010010011 %
#77676
b100010011000101000100010010011 %
#77699
b10011000101000100010010011 %
#77784
b10011000101000100000010011 %
#77851
b10011000100000100000010011 %
#78038
b10001000100000100000010011 %
#78207
b10001000000000100000010011 %
#78248
b10001000000000000000010011 %
#78274
b10000000000000000000010011 %
#78397
b10011 %
#80000
0!
b100000 $
b1101001001100011011011110000110 &
#85000
1!
#90000
0!
b100100 $
b10111110100011010111100111100101 &
#95000
1!
#100000
0!
b101000 $
b1000010011010111011001011000011 &
#105000
1!
#110000
0!
b101100 $
b100111000101100101000011110011 &
#115000
1!
#120000
0!
b110000 $
b10011011011111110010001000000010 &
#125000
1!
#130000
0!
b110100 $
b100101010001110100010010000000 &
#135000
1!
#140000
0!
b111000 $
b10100111001010110011101011101001 &
#145000
1!
#150000
0!
b111100 $
b1000100101000110110101110000110 &
#155000
1!
#160000
0!
b1000000 $
b100010000000000001100101111110 &
#165000
1!
#170000
0!
b1000100 $
b11010010110011110000000010110 &
#175000
1!
#180000
0!
b1001000 $
b101110101010101011001000010101 &
#185000
1!
#190000
0!
b1001100 $
b11001000001110011111001010000000 &
#195000
1!
#200000
0!
b1010000 $
b10111010100001111111111001111011 &
#205000
1!
#210000
0!
b1010100 $
b100101010011110010000101000100 &
#215000
1!
#220000
0!
b1011000 $
b10000101100011100001010000100110 &
#225000
1!
#230000
0!
b1011100 $
b1010001110100010011101101111011 &
#235000
1!
#240000
0!
b1100000 $
b1101000101010000110000101100001 &
#245000
1!
#250000
0!
b1100100 $
b11001010001110110010010000001 &
#255000
1!
#260000
0!
b1101000 $
b10111001111100100111100101011100 &
#265000
1!
#270000
0!
b1101100 $
b10001010001000010111001101011001 &
#275000
1!
#280000
0!
b1110000 $
b111111001010011101011101011010 &
#285000
1!
#290000
0!
b1110100 $
b10111010010111111100010111010100 &
#295000
1!
#300000
0!
b1111000 $
b10000001100101001100001111001101 &
#305000
1!
#310000
0!
b1111100 $
b10111101101110011100000001110100 &
#315000
1!
#320000
0!
b10000000 $
b11010111010100000000011010011111 &
#325000
1!
#330000
0!
b10000100 $
b1011010111110101000110011111 &
#335000
1!
#337422
b11 %
#337633
b1 %
#337785
b0 %
#340000
0!
b10001000 $
b11001111000010001110100110000101 &
#345000
1!
#350000
0!
b10001100 $
b1100010101100010011100111101110 &
#355000
1!
#360000
0!
b10010000 $
b11111101101100100100101101101001 &
#365000
1!
#370000
0!
b10010100 $
b100010100111101001001100110000 &
#375000
1!
#380000
0!
b10011000 $
b11010100111111010111101000111000 &
#385000
1!
#390000
0!
b10011100 $
b10111011110100010101011001111010 &
#395000
1!
#400000
0!
b10100000 $
b11001110111000111010111110101011 &
#405000
1!
#410000
0!
b10100100 $
b11011010111000110101110111111011 &
#415000
1!
#420000
0!
b10101000 $
b111000001111001100111110001001 &
#425000
1!
#430000
0!
b10101100 $
b11101101100100110100111110011101 &
#435000
1!
#440000
0!
b10110000 $
b11110111001100001111011100100000 &
#445000
1!
#450000
0!
b10110100 $
b1101000000011100101100011010011 &
#455000
1!
#460000
0!
b10111000 $
b1111010001000110111100111010111 &
#465000
1!
#470000
0!
b10111100 $
b1101000101111111011111001111 &
#475000
1!
#480000
0!
b11000000 $
b10101011111000111110101110 &
#485000
1!
#490000
0!
b11000100 $
b11101100010010010101111011000111 &
#495000
1!
#500000
0!
b11001000 $
b10011001011111100100110111101000 &
#505000
1!
#510000
0!
b11001100 $
b10001001001000010100111101001111 &
#515000
1!
#520000
0!
b11010000 $
b11011001010001101111001100001110 &
#525000
1!
#530000
0!
b11010100 $
b10001111100101011010101110111110 &
#535000
1!
#540000
0!
b11011000 $
b11010011100011010011000001011101 &
#545000
1!
#550000
0!
b11011100 $
b1110101011010010110001111111111 &
#555000
1!
#560000
0!
b11100000 $
b1111100011010011110101011110101 &
#565000
1!
#570000
0!
b11100100 $
b11101110011110101100001110101110 &
#575000
1!
#580000
0!
b11101000 $
b11010000001001011001100011101000 &
#585000
1!
#590000
0!
b11101100 $
b11101100001111001101001000000 &
#595000
1!
#600000
0!
b11110000 $
b101100010100100100010000111011 &
#605000
1!
#610000
0!
b11110100 $
b10100010101110001101111110011000 &
#615000
1!
#620000
0!
b11111000 $
b11001101010110011001001111101001 &
#625000
1!
#630000
0!
b11111100 $
b1111000010101111011101001111001 &
#635000
1!
#640000
0!
b100000000 $
b1111011111010011111101110111001 &
#645000
1!
#650000
0!
b100000100 $
b110111100101101000111010 &
#655000
1!
#660000
0!
b100001000 $
b101010010001010000010101011001 &
#665000
1!
#670000
0!
b100001100 $
b10111100000010010101100011101111 &
#675000
1!
#680000
0!
b100010000 $
b1001000111110110011100011001011 &
#685000
1!
#690000
0!
b100010100 $
b110001100110011001000001110111 &
#695000
1!
#700000
0!
b100011000 $
b1100100110010000001111000001110 &
#705000
1!
#710000
0!
b100011100 $
b10001000100100111111110010000101 &
#715000
1!
#720000
0!
b100100000 $
b10100001101011011000000011001100 &
#725000
1!
#730000
0!
b100100100 $
b1000110100111001101001111010000 &
#735000
1!
#740000
0!
b100101000 $
b1100000000111111011001111010 &
#745000
1!
#750000
0!
b100101100 $
b11011100010000101011001110010001 &
#755000
1!
#760000
0!
b100110000 $
b10100101101011001000101001101110 &
#765000
1!
#770000
0!
b100110100 $
b10001110101011000010011001111000 &
#775000
1!
#780000
0!
b100111000 $
b10111011101101111011000100000110 &
#785000
1!
#790000
0!
b100111100 $
b1101100111111010100100111011 &
#795000
1!
#800000
0!
b101000000 $
b1000000010100111011111011001110 &
#805000
1!
#810000
0!
b101000100 $
b10101001001001001001100100101110 &
#815000
1!
#820000
0!
b101001000 $
b1000111100000111000101111000110 &
#825000
1!
#830000
0!
b101001100 $
b11011010010001000110001011100001 &
#835000
1!
#840000
0!
b101010000 $
b10100100110000100101100111101100 &
#845000
1!
#850000
0!
b101010100 $
b1000100100100111011010000001011 &
#855000
1!
#860000
0!
b101011000 $
b10100110110100011001100001001 &
#865000
1!
#870000
0!
b101011100 $
b11110101100110000001101001100001 &
#875000
1!
#880000
0!
b101100000 $
b101011110011100100000000100000 &
#885000
1!
#890000
0!
b101100100 $
b10010111000010101110101010 &
#895000
1!
#900000
0!
b101101000 $
b10001001010001000001101100010101 &
#905000
1!
#910000
0!
b101101100 $
b110100011100000000110101001010 &
#915000
1!
#920000
0!
b101110000 $
b101101101011111101001111101010 &
#925000
1!
#930000
0!
b101110100 $
b110111101111000100111000011101 &
#935000
1!
#940000
0!
b101111000 $
b11110000011101011000111110110011 &
#945000
1!
#950000
0!
b101111100 $
b10010001001010100001100010000011 &
#955000
1!
#960000
0!
b110000000 $
b1111100101010101001001100010001 &
#965000
1!
#970000
0!
b110000100 $
b10001001111110011101011111010101 &
#975000
1!
#980000
0!
b110001000 $
b1001110010000100101010111100 &
#985000
1!
#990000
0!
b110001100 $
b110111100010110010100011011100 &
